"1"~"Спортивное питание"~~NULL~"5"
"2"~"Клубная карта"~~NULL~"7"
"3"~"Напитки"~"Напитки в упаковке (бутылка; пачка): вода; лимонад; сок; энергетик"~NULL~"7"
"4"~"Товары Рокки"~"Брендированный товар с логотипом ""Rocky"": полотенце, футболка, кофта"~NULL~"7"
"5"~"Спортивное питание"~"1. Пищевые добавки: протеин, креатин, аминокислоты, витамины и т.д. 
2. Батончики;
3. Шейкеры для приготовления коктейлей."~NULL~"7"
"6"~"Экипировка"~"Боксерское обмундирование: перчатки, бинты, капа, шлем, прочее"~NULL~"7"
"8"~"Одежда"~"(Everelast & фирменные товары Rocky): футболки, шорты, майки, полотенца, свитшоты "~NULL~"5"
"9"~"Спортивный инвентарь"~~NULL~"5"
"10"~"Напитки"~"Холодильник (заказ в Coca Cola)"~NULL~"5"
"11"~"Доп. товары"~~NULL~"5"
"12"~"Сувенирная продукция"~~NULL~"5"
"13"~"Спортивное питание"~~NULL~"3"
"14"~"Спортивный инвентарь "~~NULL~"3"
"15"~"Товары с логотипом Рокки"~~NULL~"3"
"18"~"Расходные материалы"~"Товар, предоставляемый клиенту бесплатно"~NULL~"7"
"22"~"Спортивное питание "~~NULL~"6"
"23"~"Cпортивный инвентарь "~"Бинты,перчатки,капы"~NULL~"6"
"24"~"Спортивная одежда"~"Футболки,свитшоты ,полотенца"~NULL~"6"
"25"~"Напитки"~"Все что в холодильнике"~NULL~"6"
