"1"~"тренажеры"~~"5"
"2"~"Экипировка"~"Шлемы, лапы, пады, шинпады"~"7"
"3"~"Свободные веса"~"Гантели, блины, грифы, фитнес-гантели, гири"~"7"
"4"~"Снаряды"~"Медболы, канаты, эспандеры, скакалки, коврики"~"7"
"5"~"Крупногабарит"~"ринг, стойки"~"7"
"6"~"Мебель"~"Пуфы, лавки, диваны, стеллажи, проч"~"7"
"7"~"Электрооборудование"~"Фены, сушители, компьютер, мфу, музыка, холодильник, проч"~"7"
"8"~"Офис, канцелярия"~"офисные принадлежности, канцелярия"~"7"
"9"~"Хозяйтсвенный инвентарь"~"Хозяйтсвенный инвентарь"~"7"
"10"~"Рекламные матералы, интерьер"~"Рамки, стойки, вывески"~"7"
"11"~"свободные веса"~~"3"
"12"~"тренажеры"~~"3"
"13"~"мебель"~~"3"
"14"~"снаряды"~~"3"
"15"~"Тренажеры"~"Силовая рама со скамьей, гребной аппарат , гири, блины, гриф, медицинские боллы, петли trx"~"6"
"16"~"Боксерское оборудование"~"Ринг, лапы, скоростная груша, груша на растяжках, мешки, скакалки, мячи,  шлем, настенная груша"~"6"
